{
  "Comment.nvim": { "branch": "master", "commit": "0236521ea582747b58869cb72f70ccfa967d2e89" },
  "LuaSnip": { "branch": "master", "commit": "8ae1dedd988eb56441b7858bd1e8554dfadaa46d" },
  "bufferline.nvim": { "branch": "main", "commit": "6c456b888823d9e4832aa91c482bccd19445c009" },
  "cmp-buffer": { "branch": "main", "commit": "3022dbc9166796b644a841a02de8dd1cc1d311fa" },
  "cmp-cmdline": { "branch": "main", "commit": "8ee981b4a91f536f52add291594e89fb6645e451" },
  "cmp-nvim-lsp": { "branch": "main", "commit": "5af77f54de1b16c34b23cba810150689a3a90312" },
  "cmp-path": { "branch": "main", "commit": "91ff86cd9c29299a64f968ebb45846c485725f23" },
  "cmp_luasnip": { "branch": "master", "commit": "05a9ab28b53f71d1aece421ef32fee2cb857a843" },
  "edge": { "branch": "master", "commit": "d811acd067193fabadd04f081228fd97827ae5ae" },
  "everblush": { "branch": "main", "commit": "9a0e695fdd57b340d3ba2b72406e3ca519029f25" },
  "friendly-snippets": { "branch": "main", "commit": "53d3df271d031c405255e99410628c26a8f0d2b0" },
  "gitsigns.nvim": { "branch": "main", "commit": "d195f0c35ced5174d3ecce1c4c8ebb3b5bc23fa9" },
  "gruvbox-baby": { "branch": "main", "commit": "436f73d6a45777eadedbd2f842f766d093266eb3" },
  "gruvbox-material": { "branch": "master", "commit": "7f56d9f9c4860df528031539d321a61f6e081dee" },
  "lazy.nvim": { "branch": "main", "commit": "96584866b9c5e998cbae300594d0ccfd0c464627" },
  "lspkind.nvim": { "branch": "master", "commit": "7f26cf5e27e2bd910ce0ea00c514da2bf97423b8" },
  "lspsaga.nvim": { "branch": "main", "commit": "4e2b91c0db5654d625c4b4068d3e206c8535783c" },
  "lualine.nvim": { "branch": "master", "commit": "566b7036f717f3d676362742630518a47f132fff" },
  "mason-lspconfig.nvim": { "branch": "main", "commit": "56e435e09f8729af2d41973e81a0db440f8fe9c9" },
  "mason-null-ls.nvim": { "branch": "main", "commit": "62ca3b15d637936147b19d921c228a7b6ba5263e" },
  "mason.nvim": { "branch": "main", "commit": "a09da6ac634926a299dd439da08bdb547a8ca011" },
  "move.nvim": { "branch": "main", "commit": "30047fbb4ee0f3b79bf969d37d889085e96b44e6" },
  "nightfox.nvim": { "branch": "main", "commit": "fcf699bef2b2731c840a5746113c3dd31a9cb813" },
  "none-ls.nvim": { "branch": "main", "commit": "5c72382d14ea9debccf52dd06adff086e98f6e22" },
  "nordic.nvim": { "branch": "main", "commit": "be1bab59c56668af7020af11190ec7fcd25d59b4" },
  "nvim-autopairs": { "branch": "master", "commit": "9fd41181693dd4106b3e414a822bb6569924de81" },
  "nvim-cmp": { "branch": "main", "commit": "538e37ba87284942c1d76ed38dd497e54e65b891" },
  "nvim-dap": { "branch": "master", "commit": "f0dca670fa059eb89dda8869a6310c804241345c" },
  "nvim-jdtls": { "branch": "master", "commit": "66b5ace68a5d1c45fdfb1afa8d847e87af2aa1f8" },
  "nvim-lspconfig": { "branch": "master", "commit": "ce0e625df61be77abe1340fbc9afe9ad39b31dd8" },
  "nvim-tree.lua": { "branch": "master", "commit": "50f30bcd8c62ac4a83d133d738f268279f2c2ce2" },
  "nvim-treesitter": { "branch": "master", "commit": "65ef62092ef997d2ecf68ede01a0afbda17808c3" },
  "nvim-ts-autotag": { "branch": "main", "commit": "8515e48a277a2f4947d91004d9aa92c29fdc5e18" },
  "nvim-ts-context-commentstring": { "branch": "main", "commit": "1277b4a1f451b0f18c0790e1a7f12e1e5fdebfee" },
  "nvim-web-devicons": { "branch": "master", "commit": "cff25ce621e6d15fae0b0bfe38c00be50ce38468" },
  "onedark.nvim": { "branch": "master", "commit": "c5476a091b0f1b4e853db91c91ff941f848a1cdd" },
  "onenord.nvim": { "branch": "main", "commit": "879bc64ea4678bf32d2bfda47c4e3a04af52a448" },
  "plenary.nvim": { "branch": "master", "commit": "55d9fe89e33efd26f532ef20223e5f9430c8b0c0" },
  "solid-snippets": { "branch": "main", "commit": "d50066c0a9a8aee7ebd2db80a5717b18cb57f119" },
  "sonokai": { "branch": "master", "commit": "bdce098fc9e7202d3c555e2dc98c755ca1c23835" },
  "tailwind-sorter.nvim": { "branch": "main", "commit": "854eb6e64e39602c13677453fbde41a355ec6118" },
  "tailwindcss-colorizer-cmp.nvim": { "branch": "main", "commit": "bc25c56083939f274edcfe395c6ff7de23b67c50" },
  "telescope-fzf-native.nvim": { "branch": "main", "commit": "6c921ca12321edaa773e324ef64ea301a1d0da62" },
  "telescope.nvim": { "branch": "master", "commit": "7011eaae0ac1afe036e30c95cf80200b8dc3f21a" }
}